<svg width="24" height="23" viewBox="0 0 24 23" fill="none" xmlns="http://www.w3.org/2000/svg">
<g id="cross">
<rect id="bar3" x="1.41418" width="30" height="2" transform="rotate(45 1.41418 0)" fill="#F3F4F4"/>
<rect id="bar1" x="0.414185" y="21.2132" width="30" height="2" transform="rotate(-45 0.414185 21.2132)" fill="#F3F4F4"/>
</g>
</svg>
