
//terminalis run npm watch ja jäta jooksma, siis loob sass-ist css-i
 //before going live NPM RUN PROD ja kompileerib kogu koodi ära

enne npm install bootstrap terminalisnpn
 @import 'node_modules/bootstrap/scss/bootstrap';



 <!-- <div class="test">

 <?php wp_nav_menu (

    array(
        'theme_location' => 'top-menu',
        'container_class' => 'navigation'
    )

); ?>
</div> -->

<a href="<?php bloginfo('url');?>">SEE LINK VIIB HOME-i</a>

featured image - something that is displayed at the top of the post or page contents
BELOW is what you write when and where you want this image to be diplayed
<?php if(has_post_thumbnail()): ?>
<img src="<?php the_post_thumbnail_url('largest'); ?>" class="img-fluid">

!!!!!!force regenerate thumbnails!!!!! plugin to make images you allready have the size you want. 
if size is definev then images you add after will be cropped

widgets

WOOCOMMERCE
CREATES SHOP and CHART pages - they use page template 
product page does not use page template it uses SINGLE template

CALASSICAL WP LOOP

if (have_posts()) :
    while(have_posts()) :
    the_post() ;

    //output content however we please
    endwhile;
    else:
    //fallback no content message here 
endif;   

<?php if (have_posts()) : while(have_posts()) : the_post() ;?>
    //output content however we please
<?php endwhile; else: endif; ?>
    //fallback no content message here

-looobitakse läbi need postitused millega seotud lehel parasjagu olen


/* background */

position: absolute;
width: 1440px;
height: 1024px;
left: 0px;
top: 0px;

/* Gray Pinstripe */
background: #4A494D;


/* logo */

position: absolute;
left: 28.06%;
right: 28.06%;
top: 4.98%;
bottom: 63.17%;



/* Vector */

position: absolute;
width: 15.38px;
height: 23.8px;
left: calc(50% - 15.38px/2 + 234.24px);
top: 346.21px;

/* lucent white */
background: #F3F4F4;


/* Vector */

position: absolute;
width: 14.37px;
height: 15.27px;
left: calc(50% - 14.37px/2 + 252.64px);
top: 354.79px;

/* lucent white */
background: #F3F4F4;


/* Vector */

position: absolute;
width: 11.45px;
height: 15.32px;
left: calc(50% - 11.45px/2 + 267.57px);
top: 354.74px;

/* lucent white */
background: #F3F4F4;


/* Vector */

position: absolute;
width: 3.48px;
height: 21.94px;
left: calc(50% - 3.48px/2 + 278.23px);
top: 347.72px;

/* lucent white */
background: #F3F4F4;


/* Vector */

position: absolute;
width: 15.38px;
height: 22.28px;
left: calc(50% - 15.38px/2 + 291.2px);
top: 354.91px;

/* lucent white */
background: #F3F4F4;


/* Vector */

position: absolute;
width: 12.79px;
height: 14.98px;
left: calc(50% - 12.79px/2 + 309.6px);
top: 354.85px;

/* lucent white */
background: #F3F4F4;


/* Vector */

position: absolute;
width: 84.74px;
height: 62.18px;
left: calc(50% - 84.74px/2 - 273.63px);
top: 155.67px;

/* lucent white */
background: #F3F4F4;


/* Vector */

position: absolute;
width: 46.58px;
height: 62.18px;
left: calc(50% - 46.58px/2 - 194.84px);
top: 155.67px;

/* lucent white */
background: #F3F4F4;


/* Vector */

position: absolute;
width: 7.74px;
height: 62.18px;
left: calc(50% - 7.74px/2 - 154.61px);
top: 155.67px;

/* lucent white */
background: #F3F4F4;


/* Vector */

position: absolute;
width: 46.63px;
height: 62.13px;
left: calc(50% - 46.63px/2 - 114.28px);
top: 155.73px;

/* lucent white */
background: #F3F4F4;


/* Vector */

position: absolute;
width: 43.15px;
height: 62.13px;
left: calc(50% - 43.15px/2 - 56.37px);
top: 155.67px;

/* lucent white */
background: #F3F4F4;


/* Vector */

position: absolute;
width: 54.55px;
height: 63.92px;
left: calc(50% - 54.55px/2 + 59.68px);
top: 272.57px;

/* lucent white */
background: #F3F4F4;


/* Vector */

position: absolute;
width: 46.63px;
height: 62.18px;
left: calc(50% - 46.63px/2 + 123.35px);
top: 273.42px;

/* lucent white */
background: #F3F4F4;


/* Vector */

position: absolute;
width: 63.97px;
height: 63.98px;
left: calc(50% - 63.97px/2 + 191.62px);
top: 272.57px;

/* lucent white */
background: #F3F4F4;


/* Vector */

position: absolute;
width: 84.63px;
height: 62.18px;
left: calc(50% - 84.63px/2 + 273.15px);
top: 273.42px;

/* lucent white */
background: #F3F4F4;


/* Vector */

position: absolute;
width: 84.68px;
height: 285.55px;
left: calc(50% - 84.68px/2 + 20.68px);
top: 51px;

/* lucent white */
background: #F3F4F4;


<div class="main-container focus-pics">

  <!-- SHOP  viimane lisatud toode-->
  <a href="http://whitecrow.local/shop/">
    <div class="focus">
    <h1>Shop</h1>
    <?php
        $query2 = new WP_Query(array('post_type' => 'product', 'posts_per_page' => 1));

        if ($query2->have_posts()) : while ($query2->have_posts()) : $query2->the_post(); ?>
                <?php
                if (has_post_thumbnail()) {
                    the_post_thumbnail('front-page');
                };
                ?>
        <?php endwhile;
        else : endif;
        wp_reset_postdata();
        ?>
    </div>
</a>
     <!-- NEWS - viimase blogipostituse pilt-->
    <a href="http://whitecrow.local/category/news/"> 
    <div class="focus">
      <h1>News</h1>
     
      <?php
        $query = new WP_Query(array('category_name' => 'news', 'posts_per_page' => 1));

        if ($query->have_posts()) : while ($query->have_posts()) : $query->the_post(); ?>
                <?php
                if (has_post_thumbnail()) {
                    the_post_thumbnail('front-page');
                };
                ?>
        <?php endwhile;
        else : endif;
        wp_reset_postdata();
        ?>
    </div>
 </a>

    <!-- ABOUT -->
    <a href="http://whitecrow.local/about/">
    <div class="focus">
      <?php
        $query2 = new WP_Query(array('pagename' => 'about', 'posts_per_page' => 1));

        if ($query2->have_posts()) : while ($query2->have_posts()) : $query2->the_post(); ?>
                <h1><?php the_title(); ?></h1>
                <?php
                if (has_post_thumbnail()) {
                    the_post_thumbnail('front-page');
                };
                ?>
        <?php endwhile;
        else : endif;
        wp_reset_postdata();
        ?>
    </div>
</a>

</div>
